﻿110|$|211275|$|2013-05-17|$|2016-12-01|$|CC|$|1121867374|$|luleon2907@gmail.com|$|LUISA|$|FERNANDA|$|LEÓN|$|BURGOS|$|1990-07-29|$|F|$|NO|$||$||$|3116790961|$|1|$|CO|$|CO|$|50|$|50001|$|NO|$|NO|$|0|$|0|NO|$|0|$|CO|$|50|$|50001|$|Calle 4E N° 16 47 APTO 201|$|MACUNAIMA|$|3116790961|$||$|4|$|SI|$|SI|$|SI|$|3|$|SI|$|SI|$|C2|$|SI|$|A1|$|
110|$|211275|$|2013-04-25|$|2013-04-25|$|CC|$|40445899|$|MOPIREGO@GMAIL.COM|$|MONICA|$|DEL PILAR|$|RESTREPO|$|GOMEZ|$|1978-04-18|$|F|$|SI|$| |$||$|6707072|$|1|$|CO|$|CO|$|50|$|50001|$|SI|$|NO|$|0|$|0|NO|$|0|$|CO|$|50|$|50001|$|CALLE 3B N. 40-77|$|HACARITAMA II|$|6707072|$|CASA|$|5|$|SI|$|SI|$|NO|$|3|$|NO|$|SI|$|B1|$|NO|$|  |$|
107|$|211272|$|2013-04-28|$|2016-06-21|$|CC|$|222222|$||$|JUAN|$||$|PEREZ|$||$|1980-01-01|$|M|$|SI|$|S|$|222222|$|3005089878|$|2|$|CO|$|CO|$|11|$|11001|$|SI|$|NO|$|0|$|0|NO|$|0|$|CO|$|11|$|11001|$|cl59sur 52-24|$||$||$||$|4|$|NO|$|NO|$|SI|$|3|$|NO|$|NO|$|  |$|NO|$|  |$|
1552|$|211266|$|2013-05-01|$|2013-08-22|$|CC|$|1130609593|$|cristoinsmith@hotmail.com|$|JEFFERSON|$|ESMIT|$|CASTAÑO|$|HOLGUIN|$|1987-07-12|$|M|$|SI|$|S|$|1130609593|$|6541390|$|1|$|CO|$|CO|$|76|$|76001|$|NO|$|NO|$|0|$|0|NO|$|0|$|CO|$|76|$|76892|$|CLL 10AN #1A-24|$||$|6541390|$||$|4|$|NO|$|NO|$|SI|$|2|$|NO|$|NO|$|  |$|NO|$|  |$|
