134|$|CC|$|1130648017|$|1|$|100|$|0|$|
136|$|CC|$|31943644|$|1|$|100|$|0|$|
145|$|CC|$|1144175007|$|3|$|100|$|0|$|
161|$|CC|$|94296166|$|3|$|100|$|0|$|
188|$|CC|$|1018403181|$|3|$|100|$|0|$|
195|$|CC|$|80850030|$|3|$|100|$|0|$|
218|$|CC|$|6200389|$|3|$|100|$|0|$|
220|$|CC|$|1112879956|$|3|$|100|$|0|$|
236|$|CC|$|52126273|$|3|$|100|$|0|$|
270|$|CC|$|1144175166|$|3|$|100|$|0|$|
279|$|CC|$|1107079281|$|3|$|100|$|0|$|
286|$|CC|$|1115064817|$|3|$|100|$|0|$|
293|$|CC|$|1095913052|$|3|$|100|$|0|$|
304|$|CC|$|38561654|$|3|$|100|$|0|$|