-------------------------------------------------------------------------------
Test set: com.gml.simpc.loader.batch.TrainingAttendanceLoadJobTest
-------------------------------------------------------------------------------
Tests run: 4, Failures: 0, Errors: 0, Skipped: 0, Time elapsed: 0.594 sec
