-------------------------------------------------------------------------------
Test set: com.gml.simpc.loader.master.OrientationAttendanceMasterJobTest
-------------------------------------------------------------------------------
Tests run: 1, Failures: 0, Errors: 0, Skipped: 1, Time elapsed: 0.006 sec
