-------------------------------------------------------------------------------
Test set: com.gml.simpc.loader.batch.OtherKnowledgeLoadJobTest
-------------------------------------------------------------------------------
Tests run: 2, Failures: 0, Errors: 0, Skipped: 0, Time elapsed: 0.795 sec
