Direccionamientos Histórico|$|3280|$|50303|$|Direccionamiento|$|2|$|CCF04|$|Agencia|$|11 |$|11001|$|1|$|5|$|1|$|1|$|2014-12-12|$|2014-12-12
Direccionamientos Histórico|$|3280|$|52491|$|Direccionamiento|$|2|$|CCF04|$|Agencia|$|11 |$|11001|$|1|$|5|$|1|$|1|$|2015-03-17|$|2015-03-17
Direccionamientos Histórico|$|3280|$|52492|$|Direccionamiento|$|2|$|CCF04|$|Agencia|$|11 |$|11001|$|1|$|5|$|1|$|1|$|2015-03-17|$|2015-03-17
Direccionamientos Histórico|$|3280|$|52493|$|Direccionamiento|$|2|$|CCF04|$|Agencia|$|11 |$|11001|$|1|$|5|$|1|$|1|$|2015-03-17|$|2015-03-17
Direccionamientos Histórico|$|3280|$|63626|$|Direccionamiento|$|2|$|CCF04|$|Agencia|$|11 |$|11001|$|1|$|5|$|1|$|1|$|2015-08-04|$|2015-08-04
Direccionamientos Histórico|$|3280|$|77520|$|Direccionamiento|$|2|$|CCF04|$|Agencia|$|11 |$|11001|$|1|$|5|$|1|$|1|$|2015-09-23|$|2015-09-23
Direccionamientos Histórico|$|3280|$|78877|$|Direccionamiento|$|2|$|CCF04|$|Agencia|$|11 |$|11001|$|1|$|5|$|1|$|1|$|2015-11-11|$|2015-11-11
Direccionamientos Histórico|$|3280|$|78878|$|Direccionamiento|$|2|$|CCF04|$|Agencia|$|11 |$|11001|$|1|$|5|$|1|$|1|$|2015-11-11|$|2015-11-11
Direccionamientos Histórico|$|3280|$|165499|$|Direccionamiento|$|2|$|CCF04|$|Agencia|$|11 |$|11001|$|1|$|5|$|1|$|1|$|2015-12-15|$|2015-12-15
Direccionamientos Histórico|$|3280|$|675061|$|Entrevista -ANDREA JIMENA|$|2|$|CCF04|$|Agencia|$|25 |$|25473|$|1|$|5|$|1|$|1|$|2016-01-29|$|2016-01-29
Direccionamientos Histórico|$|3280|$|675062|$|Entrevista -DEYANID SALAZ|$|2|$|CCF04|$|Agencia|$|25 |$|25473|$|1|$|5|$|1|$|1|$|2016-01-25|$|2016-01-25
Direccionamientos Histórico|$|3280|$|675065|$|Entrevista -PAOLA XIMENA |$|2|$|CCF04|$|Agencia|$|11 |$|11001|$|1|$|5|$|1|$|1|$|2016-01-23|$|2016-01-23
Direccionamientos Histórico|$|3280|$|675068|$|Entrevista -JEISSON JAVIE|$|2|$|CCF04|$|Agencia|$|11 |$|11001|$|1|$|5|$|1|$|1|$|2016-01-24|$|2016-01-24
Direccionamientos Histórico|$|3280|$|675069|$|Entrevista -BRAYAN STIVEN|$|2|$|CCF04|$|Agencia|$|11 |$|11001|$|1|$|5|$|1|$|1|$|2016-01-25|$|2016-01-25
Direccionamientos Histórico|$|3280|$|675070|$|Entrevista -JEISSON EDUAR|$|2|$|CCF04|$|Agencia|$|11 |$|11001|$|1|$|5|$|1|$|1|$|2016-02-02|$|2016-02-02
Direccionamientos Histórico|$|3280|$|675073|$|Entrevista -SANDRA YASMIN|$|2|$|CCF04|$|Agencia|$|11 |$|11001|$|1|$|5|$|1|$|1|$|2016-01-15|$|2016-01-15
Direccionamientos Histórico|$|3280|$|675077|$|Entrevista -LUISA FERNAND|$|2|$|CCF04|$|Agencia|$|11 |$|11001|$|1|$|5|$|1|$|1|$|2016-01-25|$|2016-01-25
Direccionamientos Histórico|$|3280|$|675085|$|Entrevista -JOSE DANIEL B|$|2|$|CCF04|$|Agencia|$|25 |$|25473|$|1|$|5|$|1|$|1|$|2016-01-25|$|2016-01-25
Direccionamientos Histórico|$|3280|$|675086|$|Entrevista -EDWIN STEVEN |$|2|$|CCF04|$|Agencia|$|11 |$|11001|$|1|$|5|$|1|$|1|$|2016-01-25|$|2016-01-25
Direccionamientos Histórico|$|3280|$|675090|$|Entrevista -AIDA JOHANA B|$|2|$|CCF04|$|Agencia|$|11 |$|11001|$|1|$|5|$|1|$|1|$|2016-02-02|$|2016-02-02
Direccionamientos Histórico|$|3280|$|675094|$|Entrevista -ISABEL CRISTI|$|2|$|CCF04|$|Agencia|$|11 |$|11001|$|1|$|5|$|1|$|1|$|2016-01-25|$|2016-01-25
Direccionamientos Histórico|$|3280|$|675115|$|Entrevista -BRIYITT SILVA|$|2|$|CCF04|$|Agencia|$|11 |$|11001|$|1|$|5|$|1|$|1|$|2016-01-25|$|2016-01-25
Direccionamientos Histórico|$|3280|$|675121|$|Entrevista -BRIYITT SILVA|$|2|$|CCF04|$|Agencia|$|11 |$|11001|$|1|$|5|$|1|$|1|$|2016-01-25|$|2016-01-25
Direccionamientos Histórico|$|3280|$|675123|$|Entrevista -JULIAN DAVID |$|2|$|CCF04|$|Agencia|$|11 |$|11001|$|1|$|5|$|1|$|1|$|2016-01-25|$|2016-01-25
Direccionamientos Histórico|$|3280|$|675127|$|Entrevista -DIEGO ALEJAND|$|2|$|CCF04|$|Agencia|$|11 |$|11001|$|1|$|5|$|1|$|1|$|2016-01-25|$|2016-01-25
Direccionamientos Histórico|$|3280|$|675373|$|Entrevista -YURI NATALI S|$|2|$|CCF04|$|Agencia|$|11 |$|11001|$|1|$|5|$|1|$|1|$|2016-02-01|$|2016-02-01
Direccionamientos Histórico|$|3280|$|675524|$|Entrevista -YESSICA MARIA|$|2|$|CCF04|$|Agencia|$|11 |$|11001|$|1|$|5|$|1|$|1|$|2016-01-25|$|2016-01-25
Direccionamientos Histórico|$|3280|$|675527|$|Entrevista -BRAIAN FELIPE|$|2|$|CCF04|$|Agencia|$|11 |$|11001|$|1|$|5|$|1|$|1|$|2016-01-25|$|2016-01-25
Direccionamientos Histórico|$|3280|$|675529|$|Entrevista -JEISON FERNAN|$|2|$|CCF04|$|Agencia|$|11 |$|11001|$|1|$|5|$|1|$|1|$|2016-01-25|$|2016-01-25
Direccionamientos Histórico|$|3280|$|675530|$|Entrevista -ELIZABETH TOR|$|2|$|CCF04|$|Agencia|$|11 |$|11001|$|1|$|5|$|1|$|1|$|2016-01-25|$|2016-01-25
Direccionamientos Histórico|$|3280|$|675531|$|Entrevista -ANDERSON FABI|$|2|$|CCF04|$|Agencia|$|11 |$|11001|$|1|$|5|$|1|$|1|$|2016-01-25|$|2016-01-25